%YAML 1.1
%TAG !u! tag:unity3d.com,2011:
--- !u!29 &1
OcclusionCullingSettings:
  m_ObjectHideFlags: 0
  serializedVersion: 2
  m_OcclusionBakeSettings:
    smallestOccluder: 5
    smallestHole: 0.25
    backfaceThreshold: 100
  m_SceneGUID: 00000000000000000000000000000000
  m_OcclusionCullingData: {fileID: 0}
--- !u!104 &2
RenderSettings:
  m_ObjectHideFlags: 0
  serializedVersion: 9
  m_Fog: 0
  m_FogColor: {r: 0.5, g: 0.5, b: 0.5, a: 1}
  m_FogMode: 3
  m_FogDensity: 0.01
  m_LinearFogStart: 0
  m_LinearFogEnd: 300
  m_AmbientSkyColor: {r: 0.212, g: 0.227, b: 0.259, a: 1}
  m_AmbientEquatorColor: {r: 0.114, g: 0.125, b: 0.133, a: 1}
  m_AmbientGroundColor: {r: 0.047, g: 0.043, b: 0.035, a: 1}
  m_AmbientIntensity: 1
  m_AmbientMode: 0
  m_SubtractiveShadowColor: {r: 0.42, g: 0.478, b: 0.627, a: 1}
  m_SkyboxMaterial: {fileID: 10304, guid: 0000000000000000f000000000000000, type: 0}
  m_HaloStrength: 0.5
  m_FlareStrength: 1
  m_FlareFadeSpeed: 3
  m_HaloTexture: {fileID: 0}
  m_SpotCookie: {fileID: 10001, guid: 0000000000000000e000000000000000, type: 0}
  m_DefaultReflectionMode: 0
  m_DefaultReflectionResolution: 128
  m_ReflectionBounces: 1
  m_ReflectionIntensity: 1
  m_CustomReflection: {fileID: 0}
  m_Sun: {fileID: 0}
  m_IndirectSpecularColor: {r: 0, g: 0, b: 0, a: 1}
  m_UseRadianceAmbientProbe: 0
--- !u!157 &4
LightmapSettings:
  m_ObjectHideFlags: 0
  serializedVersion: 11
  m_GIWorkflowMode: 0
  m_GISettings:
    serializedVersion: 2
    m_BounceScale: 1
    m_IndirectOutputScale: 1
    m_AlbedoBoost: 1
    m_TemporalCoherenceThreshold: 1
    m_EnvironmentLightingMode: 0
    m_EnableBakedLightmaps: 1
    m_EnableRealtimeLightmaps: 1
  m_LightmapEditorSettings:
    serializedVersion: 10
    m_Resolution: 2
    m_BakeResolution: 40
    m_AtlasSize: 1024
    m_AO: 0
    m_AOMaxDistance: 1
    m_CompAOExponent: 0
    m_CompAOExponentDirect: 0
    m_Padding: 2
    m_LightmapParameters: {fileID: 0}
    m_LightmapsBakeMode: 1
    m_TextureCompression: 1
    m_FinalGather: 0
    m_FinalGatherFiltering: 1
    m_FinalGatherRayCount: 1024
    m_ReflectionCompression: 2
    m_MixedBakeMode: 1
    m_BakeBackend: 0
    m_PVRSampling: 1
    m_PVRDirectSampleCount: 32
    m_PVRSampleCount: 500
    m_PVRBounces: 2
    m_PVRFilterTypeDirect: 0
    m_PVRFilterTypeIndirect: 0
    m_PVRFilterTypeAO: 0
    m_PVRFilteringMode: 0
    m_PVRCulling: 1
    m_PVRFilteringGaussRadiusDirect: 1
    m_PVRFilteringGaussRadiusIndirect: 5
    m_PVRFilteringGaussRadiusAO: 2
    m_PVRFilteringAtrousPositionSigmaDirect: 0.5
    m_PVRFilteringAtrousPositionSigmaIndirect: 2
    m_PVRFilteringAtrousPositionSigmaAO: 1
    m_ShowResolutionOverlay: 1
  m_LightingDataAsset: {fileID: 0}
  m_UseShadowmask: 0
--- !u!196 &5
NavMeshSettings:
  serializedVersion: 2
  m_ObjectHideFlags: 0
  m_BuildSettings:
    serializedVersion: 2
    agentTypeID: 0
    agentRadius: 0.5
    agentHeight: 2
    agentSlope: 45
    agentClimb: 0.4
    ledgeDropHeight: 0
    maxJumpAcrossDistance: 0
    minRegionArea: 2
    manualCellSize: 0
    cellSize: 0.16666667
    manualTileSize: 0
    tileSize: 256
    accuratePlacement: 0
    debug:
      m_Flags: 0
  m_NavMeshData: {fileID: 0}
--- !u!1 &60229546
GameObject:
  m_ObjectHideFlags: 0
  m_PrefabParentObject: {fileID: 137010, guid: 0109fad48584ba14d89e5501fcedd2c1, type: 2}
  m_PrefabInternal: {fileID: 1001053369}
  serializedVersion: 5
  m_Component:
  - component: {fileID: 60229550}
  - component: {fileID: 60229549}
  - component: {fileID: 60229548}
  - component: {fileID: 60229547}
  m_Layer: 5
  m_Name: WatchWeatherApp_1
  m_TagString: Untagged
  m_Icon: {fileID: 0}
  m_NavMeshLayer: 0
  m_StaticEditorFlags: 0
  m_IsActive: 1
--- !u!114 &60229547
MonoBehaviour:
  m_ObjectHideFlags: 0
  m_PrefabParentObject: {fileID: 11437008, guid: 0109fad48584ba14d89e5501fcedd2c1,
    type: 2}
  m_PrefabInternal: {fileID: 1001053369}
  m_GameObject: {fileID: 60229546}
  m_Enabled: 1
  m_EditorHideFlags: 0
  m_Script: {fileID: 1301386320, guid: f5f67c52d1564df4a8936ccd202a3bd8, type: 3}
  m_Name: 
  m_EditorClassIdentifier: 
  m_IgnoreReversedGraphics: 1
  m_BlockingObjects: 0
  m_BlockingMask:
    serializedVersion: 2
    m_Bits: 4294967295
--- !u!114 &60229548
MonoBehaviour:
  m_ObjectHideFlags: 0
  m_PrefabParentObject: {fileID: 11437006, guid: 0109fad48584ba14d89e5501fcedd2c1,
    type: 2}
  m_PrefabInternal: {fileID: 1001053369}
  m_GameObject: {fileID: 60229546}
  m_Enabled: 1
  m_EditorHideFlags: 0
  m_Script: {fileID: 1980459831, guid: f5f67c52d1564df4a8936ccd202a3bd8, type: 3}
  m_Name: 
  m_EditorClassIdentifier: 
  m_UiScaleMode: 1
  m_ReferencePixelsPerUnit: 100
  m_ScaleFactor: 1
  m_ReferenceResolution: {x: 636, y: 636}
  m_ScreenMatchMode: 0
  m_MatchWidthOrHeight: 1
  m_PhysicalUnit: 3
  m_FallbackScreenDPI: 96
  m_DefaultSpriteDPI: 96
  m_DynamicPixelsPerUnit: 1
--- !u!223 &60229549
Canvas:
  m_ObjectHideFlags: 0
  m_PrefabParentObject: {fileID: 22337026, guid: 0109fad48584ba14d89e5501fcedd2c1,
    type: 2}
  m_PrefabInternal: {fileID: 1001053369}
  m_GameObject: {fileID: 60229546}
  m_Enabled: 1
  serializedVersion: 3
  m_RenderMode: 0
  m_Camera: {fileID: 0}
  m_PlaneDistance: 100
  m_PixelPerfect: 1
  m_ReceivesEvents: 1
  m_OverrideSorting: 0
  m_OverridePixelPerfect: 0
  m_SortingBucketNormalizedSize: 0
  m_AdditionalShaderChannelsFlag: 25
  m_SortingLayerID: 0
  m_SortingOrder: 0
  m_TargetDisplay: 0
--- !u!224 &60229550
RectTransform:
  m_ObjectHideFlags: 0
  m_PrefabParentObject: {fileID: 22437010, guid: 0109fad48584ba14d89e5501fcedd2c1,
    type: 2}
  m_PrefabInternal: {fileID: 1001053369}
  m_GameObject: {fileID: 60229546}
  m_LocalRotation: {x: 0, y: 0, z: 0, w: 1}
  m_LocalPosition: {x: 0, y: 0, z: 0}
  m_LocalScale: {x: 0, y: 0, z: 0}
  m_Children:
  - {fileID: 71946070}
  - {fileID: 455805716}
  m_Father: {fileID: 0}
  m_RootOrder: 0
  m_LocalEulerAnglesHint: {x: 0, y: 0, z: 0}
  m_AnchorMin: {x: 0, y: 0}
  m_AnchorMax: {x: 0, y: 0}
  m_AnchoredPosition: {x: 0, y: 0}
  m_SizeDelta: {x: 0, y: 0}
  m_Pivot: {x: 0, y: 0}
--- !u!1 &71946069
GameObject:
  m_ObjectHideFlags: 0
  m_PrefabParentObject: {fileID: 137020, guid: 0109fad48584ba14d89e5501fcedd2c1, type: 2}
  m_PrefabInternal: {fileID: 1001053369}
  serializedVersion: 5
  m_Component:
  - component: {fileID: 71946070}
  - component: {fileID: 71946072}
  - component: {fileID: 71946071}
  m_Layer: 5
  m_Name: AppTitle
  m_TagString: Untagged
  m_Icon: {fileID: 0}
  m_NavMeshLayer: 0
  m_StaticEditorFlags: 0
  m_IsActive: 1
--- !u!224 &71946070
RectTransform:
  m_ObjectHideFlags: 0
  m_PrefabParentObject: {fileID: 22437020, guid: 0109fad48584ba14d89e5501fcedd2c1,
    type: 2}
  m_PrefabInternal: {fileID: 1001053369}
  m_GameObject: {fileID: 71946069}
  m_LocalRotation: {x: 0, y: 0, z: 0, w: 1}
  m_LocalPosition: {x: 0, y: 0, z: 0}
  m_LocalScale: {x: 1, y: 1, z: 1}
  m_Children:
  - {fileID: 956766413}
  m_Father: {fileID: 60229550}
  m_RootOrder: 0
  m_LocalEulerAnglesHint: {x: 0, y: 0, z: 0}
  m_AnchorMin: {x: 0.5, y: 0.5}
  m_AnchorMax: {x: 0.5, y: 0.5}
  m_AnchoredPosition: {x: 28, y: 405}
  m_SizeDelta: {x: 695, y: 109}
  m_Pivot: {x: 0.5, y: 0.5}
--- !u!114 &71946071
MonoBehaviour:
  m_ObjectHideFlags: 0
  m_PrefabParentObject: {fileID: 11437018, guid: 0109fad48584ba14d89e5501fcedd2c1,
    type: 2}
  m_PrefabInternal: {fileID: 1001053369}
  m_GameObject: {fileID: 71946069}
  m_Enabled: 1
  m_EditorHideFlags: 0
  m_Script: {fileID: 708705254, guid: f5f67c52d1564df4a8936ccd202a3bd8, type: 3}
  m_Name: 
  m_EditorClassIdentifier: 
  m_Material: {fileID: 0}
  m_Color: {r: 0.85490197, g: 0.85490197, b: 0.85490197, a: 1}
  m_RaycastTarget: 1
  m_OnCullStateChanged:
    m_PersistentCalls:
      m_Calls: []
    m_TypeName: UnityEngine.UI.MaskableGraphic+CullStateChangedEvent, UnityEngine.UI,
      Version=1.0.0.0, Culture=neutral, PublicKeyToken=null
  m_FontData:
    m_Font: {fileID: 12800000, guid: 218956a5c2a6e42d6a60afccf80b002b, type: 3}
    m_FontSize: 75
    m_FontStyle: 0
    m_BestFit: 0
    m_MinSize: 10
    m_MaxSize: 75
    m_Alignment: 0
    m_AlignByGeometry: 0
    m_RichText: 1
    m_HorizontalOverflow: 0
    m_VerticalOverflow: 1
    m_LineSpacing: 1
  m_Text: WEATHER WATCH
--- !u!222 &71946072
CanvasRenderer:
  m_ObjectHideFlags: 0
  m_PrefabParentObject: {fileID: 22237020, guid: 0109fad48584ba14d89e5501fcedd2c1,
    type: 2}
  m_PrefabInternal: {fileID: 1001053369}
  m_GameObject: {fileID: 71946069}
--- !u!1 &390092693
GameObject:
  m_ObjectHideFlags: 0
  m_PrefabParentObject: {fileID: 137018, guid: 0109fad48584ba14d89e5501fcedd2c1, type: 2}
  m_PrefabInternal: {fileID: 1001053369}
  serializedVersion: 5
  m_Component:
  - component: {fileID: 390092694}
  - component: {fileID: 390092696}
  - component: {fileID: 390092695}
  m_Layer: 5
  m_Name: Text
  m_TagString: Untagged
  m_Icon: {fileID: 0}
  m_NavMeshLayer: 0
  m_StaticEditorFlags: 0
  m_IsActive: 1
--- !u!224 &390092694
RectTransform:
  m_ObjectHideFlags: 0
  m_PrefabParentObject: {fileID: 22437018, guid: 0109fad48584ba14d89e5501fcedd2c1,
    type: 2}
  m_PrefabInternal: {fileID: 1001053369}
  m_GameObject: {fileID: 390092693}
  m_LocalRotation: {x: 0, y: 0, z: 0, w: 1}
  m_LocalPosition: {x: 0, y: 0, z: 0}
  m_LocalScale: {x: 1, y: 1, z: 1}
  m_Children: []
  m_Father: {fileID: 743553153}
  m_RootOrder: 0
  m_LocalEulerAnglesHint: {x: 0, y: 0, z: 0}
  m_AnchorMin: {x: 0.5, y: 0.5}
  m_AnchorMax: {x: 0.5, y: 0.5}
  m_AnchoredPosition: {x: 65.1, y: 0.00010109}
  m_SizeDelta: {x: 76.3, y: 30}
  m_Pivot: {x: 0.5, y: 0.5}
--- !u!114 &390092695
MonoBehaviour:
  m_ObjectHideFlags: 0
  m_PrefabParentObject: {fileID: 11437016, guid: 0109fad48584ba14d89e5501fcedd2c1,
    type: 2}
  m_PrefabInternal: {fileID: 1001053369}
  m_GameObject: {fileID: 390092693}
  m_Enabled: 1
  m_EditorHideFlags: 0
  m_Script: {fileID: 708705254, guid: f5f67c52d1564df4a8936ccd202a3bd8, type: 3}
  m_Name: 
  m_EditorClassIdentifier: 
  m_Material: {fileID: 0}
  m_Color: {r: 0.99215686, g: 0.99215686, b: 0.99215686, a: 0.42745098}
  m_RaycastTarget: 1
  m_OnCullStateChanged:
    m_PersistentCalls:
      m_Calls: []
    m_TypeName: UnityEngine.UI.MaskableGraphic+CullStateChangedEvent, UnityEngine.UI,
      Version=1.0.0.0, Culture=neutral, PublicKeyToken=null
  m_FontData:
    m_Font: {fileID: 12800000, guid: 218956a5c2a6e42d6a60afccf80b002b, type: 3}
    m_FontSize: 20
    m_FontStyle: 0
    m_BestFit: 0
    m_MinSize: 10
    m_MaxSize: 40
    m_Alignment: 3
    m_AlignByGeometry: 0
    m_RichText: 1
    m_HorizontalOverflow: 0
    m_VerticalOverflow: 0
    m_LineSpacing: 1
  m_Text: "70\u02DA"
--- !u!222 &390092696
CanvasRenderer:
  m_ObjectHideFlags: 0
  m_PrefabParentObject: {fileID: 22237018, guid: 0109fad48584ba14d89e5501fcedd2c1,
    type: 2}
  m_PrefabInternal: {fileID: 1001053369}
  m_GameObject: {fileID: 390092693}
--- !u!1 &455805715
GameObject:
  m_ObjectHideFlags: 0
  m_PrefabParentObject: {fileID: 137026, guid: 0109fad48584ba14d89e5501fcedd2c1, type: 2}
  m_PrefabInternal: {fileID: 1001053369}
  serializedVersion: 5
  m_Component:
  - component: {fileID: 455805716}
  - component: {fileID: 455805719}
  - component: {fileID: 455805718}
  - component: {fileID: 455805717}
  m_Layer: 5
  m_Name: Panel
  m_TagString: Untagged
  m_Icon: {fileID: 0}
  m_NavMeshLayer: 0
  m_StaticEditorFlags: 0
  m_IsActive: 1
--- !u!224 &455805716
RectTransform:
  m_ObjectHideFlags: 0
  m_PrefabParentObject: {fileID: 22437026, guid: 0109fad48584ba14d89e5501fcedd2c1,
    type: 2}
  m_PrefabInternal: {fileID: 1001053369}
  m_GameObject: {fileID: 455805715}
  m_LocalRotation: {x: 0, y: 0, z: 0, w: 1}
  m_LocalPosition: {x: 0, y: 0, z: 0}
  m_LocalScale: {x: 1, y: 1, z: 1}
  m_Children:
  - {fileID: 967054807}
  - {fileID: 1602207269}
  - {fileID: 1797423836}
  - {fileID: 743553153}
  - {fileID: 1161021421}
  - {fileID: 1458133567}
  m_Father: {fileID: 60229550}
  m_RootOrder: 1
  m_LocalEulerAnglesHint: {x: 0, y: 0, z: 0}
  m_AnchorMin: {x: 0, y: 0}
  m_AnchorMax: {x: 0, y: 0}
  m_AnchoredPosition: {x: 318, y: 318}
  m_SizeDelta: {x: 636, y: 636}
  m_Pivot: {x: 0.5, y: 0.5}
--- !u!114 &455805717
MonoBehaviour:
  m_ObjectHideFlags: 0
  m_PrefabParentObject: {fileID: 11437026, guid: 0109fad48584ba14d89e5501fcedd2c1,
    type: 2}
  m_PrefabInternal: {fileID: 1001053369}
  m_GameObject: {fileID: 455805715}
  m_Enabled: 1
  m_EditorHideFlags: 0
  m_Script: {fileID: -1200242548, guid: f5f67c52d1564df4a8936ccd202a3bd8, type: 3}
  m_Name: 
  m_EditorClassIdentifier: 
  m_ShowMaskGraphic: 1
--- !u!114 &455805718
MonoBehaviour:
  m_ObjectHideFlags: 0
  m_PrefabParentObject: {fileID: 11437024, guid: 0109fad48584ba14d89e5501fcedd2c1,
    type: 2}
  m_PrefabInternal: {fileID: 1001053369}
  m_GameObject: {fileID: 455805715}
  m_Enabled: 1
  m_EditorHideFlags: 0
  m_Script: {fileID: -765806418, guid: f5f67c52d1564df4a8936ccd202a3bd8, type: 3}
  m_Name: 
  m_EditorClassIdentifier: 
  m_Material: {fileID: 0}
  m_Color: {r: 0.972549, g: 0.5137255, b: 0.4392157, a: 1}
  m_RaycastTarget: 1
  m_OnCullStateChanged:
    m_PersistentCalls:
      m_Calls: []
    m_TypeName: UnityEngine.UI.MaskableGraphic+CullStateChangedEvent, UnityEngine.UI,
      Version=1.0.0.0, Culture=neutral, PublicKeyToken=null
  m_Sprite: {fileID: 21300000, guid: 291502478103f274da140dc9d17c64dc, type: 3}
  m_Type: 0
  m_PreserveAspect: 0
  m_FillCenter: 1
  m_FillMethod: 4
  m_FillAmount: 1
  m_FillClockwise: 1
  m_FillOrigin: 0
--- !u!222 &455805719
CanvasRenderer:
  m_ObjectHideFlags: 0
  m_PrefabParentObject: {fileID: 22237026, guid: 0109fad48584ba14d89e5501fcedd2c1,
    type: 2}
  m_PrefabInternal: {fileID: 1001053369}
  m_GameObject: {fileID: 455805715}
--- !u!1 &743553152
GameObject:
  m_ObjectHideFlags: 0
  m_PrefabParentObject: {fileID: 137014, guid: 0109fad48584ba14d89e5501fcedd2c1, type: 2}
  m_PrefabInternal: {fileID: 1001053369}
  serializedVersion: 5
  m_Component:
  - component: {fileID: 743553153}
  - component: {fileID: 743553155}
  - component: {fileID: 743553154}
  m_Layer: 5
  m_Name: Icon
  m_TagString: Untagged
  m_Icon: {fileID: 0}
  m_NavMeshLayer: 0
  m_StaticEditorFlags: 0
  m_IsActive: 1
--- !u!224 &743553153
RectTransform:
  m_ObjectHideFlags: 0
  m_PrefabParentObject: {fileID: 22437014, guid: 0109fad48584ba14d89e5501fcedd2c1,
    type: 2}
  m_PrefabInternal: {fileID: 1001053369}
  m_GameObject: {fileID: 743553152}
  m_LocalRotation: {x: 0, y: 0, z: 0, w: 1}
  m_LocalPosition: {x: 0, y: 0, z: 0}
  m_LocalScale: {x: 1, y: 1, z: 1}
  m_Children:
  - {fileID: 390092694}
  m_Father: {fileID: 455805716}
  m_RootOrder: 3
  m_LocalEulerAnglesHint: {x: 0, y: 0, z: 0}
  m_AnchorMin: {x: 0, y: 0}
  m_AnchorMax: {x: 0, y: 0}
  m_AnchoredPosition: {x: 450, y: 133}
  m_SizeDelta: {x: 32.9, y: 42.911}
  m_Pivot: {x: 0.5, y: 0.5}
--- !u!114 &743553154
MonoBehaviour:
  m_ObjectHideFlags: 0
  m_PrefabParentObject: {fileID: 11437012, guid: 0109fad48584ba14d89e5501fcedd2c1,
    type: 2}
  m_PrefabInternal: {fileID: 1001053369}
  m_GameObject: {fileID: 743553152}
  m_Enabled: 1
  m_EditorHideFlags: 0
  m_Script: {fileID: -765806418, guid: f5f67c52d1564df4a8936ccd202a3bd8, type: 3}
  m_Name: 
  m_EditorClassIdentifier: 
  m_Material: {fileID: 0}
  m_Color: {r: 1, g: 1, b: 1, a: 0.3254902}
  m_RaycastTarget: 1
  m_OnCullStateChanged:
    m_PersistentCalls:
      m_Calls: []
    m_TypeName: UnityEngine.UI.MaskableGraphic+CullStateChangedEvent, UnityEngine.UI,
      Version=1.0.0.0, Culture=neutral, PublicKeyToken=null
  m_Sprite: {fileID: 21300000, guid: 73743ce9c497b4c9d9cd5103ae1fc4a3, type: 3}
  m_Type: 0
  m_PreserveAspect: 0
  m_FillCenter: 1
  m_FillMethod: 4
  m_FillAmount: 1
  m_FillClockwise: 1
  m_FillOrigin: 0
--- !u!222 &743553155
CanvasRenderer:
  m_ObjectHideFlags: 0
  m_PrefabParentObject: {fileID: 22237014, guid: 0109fad48584ba14d89e5501fcedd2c1,
    type: 2}
  m_PrefabInternal: {fileID: 1001053369}
  m_GameObject: {fileID: 743553152}
--- !u!1 &812986270
GameObject:
  m_ObjectHideFlags: 0
  m_PrefabParentObject: {fileID: 137016, guid: 0109fad48584ba14d89e5501fcedd2c1, type: 2}
  m_PrefabInternal: {fileID: 1001053369}
  serializedVersion: 5
  m_Component:
  - component: {fileID: 812986271}
  - component: {fileID: 812986273}
  - component: {fileID: 812986272}
  m_Layer: 5
  m_Name: Text
  m_TagString: Untagged
  m_Icon: {fileID: 0}
  m_NavMeshLayer: 0
  m_StaticEditorFlags: 0
  m_IsActive: 1
--- !u!224 &812986271
RectTransform:
  m_ObjectHideFlags: 0
  m_PrefabParentObject: {fileID: 22437016, guid: 0109fad48584ba14d89e5501fcedd2c1,
    type: 2}
  m_PrefabInternal: {fileID: 1001053369}
  m_GameObject: {fileID: 812986270}
  m_LocalRotation: {x: 0, y: 0, z: 0, w: 1}
  m_LocalPosition: {x: 0, y: 0, z: 0}
  m_LocalScale: {x: 1, y: 1, z: 1}
  m_Children: []
  m_Father: {fileID: 1797423836}
  m_RootOrder: 0
  m_LocalEulerAnglesHint: {x: 0, y: 0, z: 0}
  m_AnchorMin: {x: 0.5, y: 0.5}
  m_AnchorMax: {x: 0.5, y: 0.5}
  m_AnchoredPosition: {x: 61.5, y: 0.00010109}
  m_SizeDelta: {x: 76.3, y: 30}
  m_Pivot: {x: 0.5, y: 0.5}
--- !u!114 &812986272
MonoBehaviour:
  m_ObjectHideFlags: 0
  m_PrefabParentObject: {fileID: 11437014, guid: 0109fad48584ba14d89e5501fcedd2c1,
    type: 2}
  m_PrefabInternal: {fileID: 1001053369}
  m_GameObject: {fileID: 812986270}
  m_Enabled: 1
  m_EditorHideFlags: 0
  m_Script: {fileID: 708705254, guid: f5f67c52d1564df4a8936ccd202a3bd8, type: 3}
  m_Name: 
  m_EditorClassIdentifier: 
  m_Material: {fileID: 0}
  m_Color: {r: 0.99215686, g: 0.99215686, b: 0.99215686, a: 0.42745098}
  m_RaycastTarget: 1
  m_OnCullStateChanged:
    m_PersistentCalls:
      m_Calls: []
    m_TypeName: UnityEngine.UI.MaskableGraphic+CullStateChangedEvent, UnityEngine.UI,
      Version=1.0.0.0, Culture=neutral, PublicKeyToken=null
  m_FontData:
    m_Font: {fileID: 12800000, guid: 218956a5c2a6e42d6a60afccf80b002b, type: 3}
    m_FontSize: 20
    m_FontStyle: 0
    m_BestFit: 0
    m_MinSize: 10
    m_MaxSize: 40
    m_Alignment: 3
    m_AlignByGeometry: 0
    m_RichText: 1
    m_HorizontalOverflow: 0
    m_VerticalOverflow: 0
    m_LineSpacing: 1
  m_Text: 7 m/s
--- !u!222 &812986273
CanvasRenderer:
  m_ObjectHideFlags: 0
  m_PrefabParentObject: {fileID: 22237016, guid: 0109fad48584ba14d89e5501fcedd2c1,
    type: 2}
  m_PrefabInternal: {fileID: 1001053369}
  m_GameObject: {fileID: 812986270}
--- !u!1 &956766412
GameObject:
  m_ObjectHideFlags: 0
  m_PrefabParentObject: {fileID: 137008, guid: 0109fad48584ba14d89e5501fcedd2c1, type: 2}
  m_PrefabInternal: {fileID: 1001053369}
  serializedVersion: 5
  m_Component:
  - component: {fileID: 956766413}
  - component: {fileID: 956766415}
  - component: {fileID: 956766414}
  m_Layer: 5
  m_Name: AppTitle
  m_TagString: Untagged
  m_Icon: {fileID: 0}
  m_NavMeshLayer: 0
  m_StaticEditorFlags: 0
  m_IsActive: 1
--- !u!224 &956766413
RectTransform:
  m_ObjectHideFlags: 0
  m_PrefabParentObject: {fileID: 22437008, guid: 0109fad48584ba14d89e5501fcedd2c1,
    type: 2}
  m_PrefabInternal: {fileID: 1001053369}
  m_GameObject: {fileID: 956766412}
  m_LocalRotation: {x: 0, y: 0, z: 0, w: 1}
  m_LocalPosition: {x: 0, y: 0, z: 0}
  m_LocalScale: {x: 1, y: 1, z: 1}
  m_Children: []
  m_Father: {fileID: 71946070}
  m_RootOrder: 0
  m_LocalEulerAnglesHint: {x: 0, y: 0, z: 0}
  m_AnchorMin: {x: 0.5, y: 0.5}
  m_AnchorMax: {x: 0.5, y: 0.5}
  m_AnchoredPosition: {x: -0.00011635, y: -77}
  m_SizeDelta: {x: 695, y: 109}
  m_Pivot: {x: 0.5, y: 0.5}
--- !u!114 &956766414
MonoBehaviour:
  m_ObjectHideFlags: 0
  m_PrefabParentObject: {fileID: 11437004, guid: 0109fad48584ba14d89e5501fcedd2c1,
    type: 2}
  m_PrefabInternal: {fileID: 1001053369}
  m_GameObject: {fileID: 956766412}
  m_Enabled: 1
  m_EditorHideFlags: 0
  m_Script: {fileID: 708705254, guid: f5f67c52d1564df4a8936ccd202a3bd8, type: 3}
  m_Name: 
  m_EditorClassIdentifier: 
  m_Material: {fileID: 0}
  m_Color: {r: 0.85490197, g: 0.85490197, b: 0.85490197, a: 1}
  m_RaycastTarget: 1
  m_OnCullStateChanged:
    m_PersistentCalls:
      m_Calls: []
    m_TypeName: UnityEngine.UI.MaskableGraphic+CullStateChangedEvent, UnityEngine.UI,
      Version=1.0.0.0, Culture=neutral, PublicKeyToken=null
  m_FontData:
    m_Font: {fileID: 12800000, guid: 218956a5c2a6e42d6a60afccf80b002b, type: 3}
    m_FontSize: 40
    m_FontStyle: 0
    m_BestFit: 0
    m_MinSize: 10
    m_MaxSize: 40
    m_Alignment: 0
    m_AlignByGeometry: 0
    m_RichText: 1
    m_HorizontalOverflow: 0
    m_VerticalOverflow: 1
    m_LineSpacing: 1
  m_Text: APP SAMPLE
--- !u!222 &956766415
CanvasRenderer:
  m_ObjectHideFlags: 0
  m_PrefabParentObject: {fileID: 22237010, guid: 0109fad48584ba14d89e5501fcedd2c1,
    type: 2}
  m_PrefabInternal: {fileID: 1001053369}
  m_GameObject: {fileID: 956766412}
--- !u!1 &967054806
GameObject:
  m_ObjectHideFlags: 0
  m_PrefabParentObject: {fileID: 137024, guid: 0109fad48584ba14d89e5501fcedd2c1, type: 2}
  m_PrefabInternal: {fileID: 1001053369}
  serializedVersion: 5
  m_Component:
  - component: {fileID: 967054807}
  - component: {fileID: 967054809}
  - component: {fileID: 967054808}
  m_Layer: 5
  m_Name: WeatherIcon
  m_TagString: Untagged
  m_Icon: {fileID: 0}
  m_NavMeshLayer: 0
  m_StaticEditorFlags: 0
  m_IsActive: 1
--- !u!224 &967054807
RectTransform:
  m_ObjectHideFlags: 0
  m_PrefabParentObject: {fileID: 22437024, guid: 0109fad48584ba14d89e5501fcedd2c1,
    type: 2}
  m_PrefabInternal: {fileID: 1001053369}
  m_GameObject: {fileID: 967054806}
  m_LocalRotation: {x: 0, y: 0, z: 0, w: 1}
  m_LocalPosition: {x: 0, y: 0, z: 0}
  m_LocalScale: {x: 1, y: 1, z: 1}
  m_Children:
  - {fileID: 1190093707}
  m_Father: {fileID: 455805716}
  m_RootOrder: 0
  m_LocalEulerAnglesHint: {x: 0, y: 0, z: 0}
  m_AnchorMin: {x: 0, y: 0}
  m_AnchorMax: {x: 0, y: 0}
  m_AnchoredPosition: {x: 388, y: 342}
  m_SizeDelta: {x: 227, y: 197}
  m_Pivot: {x: 0.5, y: 0.5}
--- !u!114 &967054808
MonoBehaviour:
  m_ObjectHideFlags: 0
  m_PrefabParentObject: {fileID: 11437022, guid: 0109fad48584ba14d89e5501fcedd2c1,
    type: 2}
  m_PrefabInternal: {fileID: 1001053369}
  m_GameObject: {fileID: 967054806}
  m_Enabled: 1
  m_EditorHideFlags: 0
  m_Script: {fileID: -765806418, guid: f5f67c52d1564df4a8936ccd202a3bd8, type: 3}
  m_Name: 
  m_EditorClassIdentifier: 
  m_Material: {fileID: 0}
  m_Color: {r: 0.99607843, g: 0.99607843, b: 0.99607843, a: 1}
  m_RaycastTarget: 1
  m_OnCullStateChanged:
    m_PersistentCalls:
      m_Calls: []
    m_TypeName: UnityEngine.UI.MaskableGraphic+CullStateChangedEvent, UnityEngine.UI,
      Version=1.0.0.0, Culture=neutral, PublicKeyToken=null
  m_Sprite: {fileID: 21300000, guid: 85983cedfc874aa49a5162ddb24fb7cd, type: 3}
  m_Type: 0
  m_PreserveAspect: 0
  m_FillCenter: 1
  m_FillMethod: 4
  m_FillAmount: 1
  m_FillClockwise: 1
  m_FillOrigin: 0
--- !u!222 &967054809
CanvasRenderer:
  m_ObjectHideFlags: 0
  m_PrefabParentObject: {fileID: 22237024, guid: 0109fad48584ba14d89e5501fcedd2c1,
    type: 2}
  m_PrefabInternal: {fileID: 1001053369}
  m_GameObject: {fileID: 967054806}
--- !u!1001 &1001053369
Prefab:
  m_ObjectHideFlags: 0
  serializedVersion: 2
  m_Modification:
    m_TransformParent: {fileID: 0}
    m_Modifications:
    - target: {fileID: 22437010, guid: 0109fad48584ba14d89e5501fcedd2c1, type: 2}
      propertyPath: m_LocalPosition.x
      value: 0
      objectReference: {fileID: 0}
    - target: {fileID: 22437010, guid: 0109fad48584ba14d89e5501fcedd2c1, type: 2}
      propertyPath: m_LocalPosition.y
      value: 0
      objectReference: {fileID: 0}
    - target: {fileID: 22437010, guid: 0109fad48584ba14d89e5501fcedd2c1, type: 2}
      propertyPath: m_LocalPosition.z
      value: 0
      objectReference: {fileID: 0}
    - target: {fileID: 22437010, guid: 0109fad48584ba14d89e5501fcedd2c1, type: 2}
      propertyPath: m_LocalRotation.x
      value: 0
      objectReference: {fileID: 0}
    - target: {fileID: 22437010, guid: 0109fad48584ba14d89e5501fcedd2c1, type: 2}
      propertyPath: m_LocalRotation.y
      value: 0
      objectReference: {fileID: 0}
    - target: {fileID: 22437010, guid: 0109fad48584ba14d89e5501fcedd2c1, type: 2}
      propertyPath: m_LocalRotation.z
      value: 0
      objectReference: {fileID: 0}
    - target: {fileID: 22437010, guid: 0109fad48584ba14d89e5501fcedd2c1, type: 2}
      propertyPath: m_LocalRotation.w
      value: 1
      objectReference: {fileID: 0}
    - target: {fileID: 22437010, guid: 0109fad48584ba14d89e5501fcedd2c1, type: 2}
      propertyPath: m_RootOrder
      value: 0
      objectReference: {fileID: 0}
    - target: {fileID: 22437010, guid: 0109fad48584ba14d89e5501fcedd2c1, type: 2}
      propertyPath: m_AnchoredPosition.x
      value: 0
      objectReference: {fileID: 0}
    - target: {fileID: 22437010, guid: 0109fad48584ba14d89e5501fcedd2c1, type: 2}
      propertyPath: m_AnchoredPosition.y
      value: 0
      objectReference: {fileID: 0}
    - target: {fileID: 22437010, guid: 0109fad48584ba14d89e5501fcedd2c1, type: 2}
      propertyPath: m_SizeDelta.x
      value: 0
      objectReference: {fileID: 0}
    - target: {fileID: 22437010, guid: 0109fad48584ba14d89e5501fcedd2c1, type: 2}
      propertyPath: m_SizeDelta.y
      value: 0
      objectReference: {fileID: 0}
    - target: {fileID: 22437010, guid: 0109fad48584ba14d89e5501fcedd2c1, type: 2}
      propertyPath: m_AnchorMin.x
      value: 0
      objectReference: {fileID: 0}
    - target: {fileID: 22437010, guid: 0109fad48584ba14d89e5501fcedd2c1, type: 2}
      propertyPath: m_AnchorMin.y
      value: 0
      objectReference: {fileID: 0}
    - target: {fileID: 22437010, guid: 0109fad48584ba14d89e5501fcedd2c1, type: 2}
      propertyPath: m_AnchorMax.x
      value: 0
      objectReference: {fileID: 0}
    - target: {fileID: 22437010, guid: 0109fad48584ba14d89e5501fcedd2c1, type: 2}
      propertyPath: m_AnchorMax.y
      value: 0
      objectReference: {fileID: 0}
    - target: {fileID: 22437010, guid: 0109fad48584ba14d89e5501fcedd2c1, type: 2}
      propertyPath: m_Pivot.x
      value: 0
      objectReference: {fileID: 0}
    - target: {fileID: 22437010, guid: 0109fad48584ba14d89e5501fcedd2c1, type: 2}
      propertyPath: m_Pivot.y
      value: 0
      objectReference: {fileID: 0}
    m_RemovedComponents: []
  m_ParentPrefab: {fileID: 100100000, guid: 0109fad48584ba14d89e5501fcedd2c1, type: 2}
  m_RootGameObject: {fileID: 60229546}
  m_IsPrefabParent: 0
--- !u!1 &1161021420
GameObject:
  m_ObjectHideFlags: 0
  m_PrefabParentObject: {fileID: 137012, guid: 0109fad48584ba14d89e5501fcedd2c1, type: 2}
  m_PrefabInternal: {fileID: 1001053369}
  serializedVersion: 5
  m_Component:
  - component: {fileID: 1161021421}
  - component: {fileID: 1161021423}
  - component: {fileID: 1161021422}
  m_Layer: 5
  m_Name: Text
  m_TagString: Untagged
  m_Icon: {fileID: 0}
  m_NavMeshLayer: 0
  m_StaticEditorFlags: 0
  m_IsActive: 1
--- !u!224 &1161021421
RectTransform:
  m_ObjectHideFlags: 0
  m_PrefabParentObject: {fileID: 22437012, guid: 0109fad48584ba14d89e5501fcedd2c1,
    type: 2}
  m_PrefabInternal: {fileID: 1001053369}
  m_GameObject: {fileID: 1161021420}
  m_LocalRotation: {x: 0, y: 0, z: 0, w: 1}
  m_LocalPosition: {x: 0, y: 0, z: 0}
  m_LocalScale: {x: 1, y: 1, z: 1}
  m_Children: []
  m_Father: {fileID: 455805716}
  m_RootOrder: 4
  m_LocalEulerAnglesHint: {x: 0, y: 0, z: 0}
  m_AnchorMin: {x: 0.5, y: 0.5}
  m_AnchorMax: {x: 0.5, y: 0.5}
  m_AnchoredPosition: {x: 0, y: 249}
  m_SizeDelta: {x: 636, y: 139}
  m_Pivot: {x: 0.5, y: 0.5}
--- !u!114 &1161021422
MonoBehaviour:
  m_ObjectHideFlags: 0
  m_PrefabParentObject: {fileID: 11437010, guid: 0109fad48584ba14d89e5501fcedd2c1,
    type: 2}
  m_PrefabInternal: {fileID: 1001053369}
  m_GameObject: {fileID: 1161021420}
  m_Enabled: 1
  m_EditorHideFlags: 0
  m_Script: {fileID: 708705254, guid: f5f67c52d1564df4a8936ccd202a3bd8, type: 3}
  m_Name: 
  m_EditorClassIdentifier: 
  m_Material: {fileID: 0}
  m_Color: {r: 0.99215686, g: 0.99215686, b: 0.99215686, a: 1}
  m_RaycastTarget: 1
  m_OnCullStateChanged:
    m_PersistentCalls:
      m_Calls: []
    m_TypeName: UnityEngine.UI.MaskableGraphic+CullStateChangedEvent, UnityEngine.UI,
      Version=1.0.0.0, Culture=neutral, PublicKeyToken=null
  m_FontData:
    m_Font: {fileID: 12800000, guid: 5c425d43bb0df45ca8eb162d5154251e, type: 3}
    m_FontSize: 40
    m_FontStyle: 0
    m_BestFit: 0
    m_MinSize: 10
    m_MaxSize: 40
    m_Alignment: 4
    m_AlignByGeometry: 0
    m_RichText: 1
    m_HorizontalOverflow: 0
    m_VerticalOverflow: 0
    m_LineSpacing: 1
  m_Text: 03:40 AM
--- !u!222 &1161021423
CanvasRenderer:
  m_ObjectHideFlags: 0
  m_PrefabParentObject: {fileID: 22237012, guid: 0109fad48584ba14d89e5501fcedd2c1,
    type: 2}
  m_PrefabInternal: {fileID: 1001053369}
  m_GameObject: {fileID: 1161021420}
--- !u!1 &1190093706
GameObject:
  m_ObjectHideFlags: 0
  m_PrefabParentObject: {fileID: 137004, guid: 0109fad48584ba14d89e5501fcedd2c1, type: 2}
  m_PrefabInternal: {fileID: 1001053369}
  serializedVersion: 5
  m_Component:
  - component: {fileID: 1190093707}
  - component: {fileID: 1190093709}
  - component: {fileID: 1190093708}
  m_Layer: 5
  m_Name: Text
  m_TagString: Untagged
  m_Icon: {fileID: 0}
  m_NavMeshLayer: 0
  m_StaticEditorFlags: 0
  m_IsActive: 1
--- !u!224 &1190093707
RectTransform:
  m_ObjectHideFlags: 0
  m_PrefabParentObject: {fileID: 22437004, guid: 0109fad48584ba14d89e5501fcedd2c1,
    type: 2}
  m_PrefabInternal: {fileID: 1001053369}
  m_GameObject: {fileID: 1190093706}
  m_LocalRotation: {x: 0, y: 0, z: 0, w: 1}
  m_LocalPosition: {x: 0, y: 0, z: 0}
  m_LocalScale: {x: 1, y: 1, z: 1}
  m_Children: []
  m_Father: {fileID: 967054807}
  m_RootOrder: 0
  m_LocalEulerAnglesHint: {x: 0, y: 0, z: 0}
  m_AnchorMin: {x: 0.5, y: 0.5}
  m_AnchorMax: {x: 0.5, y: 0.5}
  m_AnchoredPosition: {x: -112.95, y: 61}
  m_SizeDelta: {x: 317, y: 244}
  m_Pivot: {x: 0.5, y: 0.5}
--- !u!114 &1190093708
MonoBehaviour:
  m_ObjectHideFlags: 0
  m_PrefabParentObject: {fileID: 11437000, guid: 0109fad48584ba14d89e5501fcedd2c1,
    type: 2}
  m_PrefabInternal: {fileID: 1001053369}
  m_GameObject: {fileID: 1190093706}
  m_Enabled: 1
  m_EditorHideFlags: 0
  m_Script: {fileID: 708705254, guid: f5f67c52d1564df4a8936ccd202a3bd8, type: 3}
  m_Name: 
  m_EditorClassIdentifier: 
  m_Material: {fileID: 0}
  m_Color: {r: 0.99215686, g: 0.99215686, b: 0.99215686, a: 1}
  m_RaycastTarget: 1
  m_OnCullStateChanged:
    m_PersistentCalls:
      m_Calls: []
    m_TypeName: UnityEngine.UI.MaskableGraphic+CullStateChangedEvent, UnityEngine.UI,
      Version=1.0.0.0, Culture=neutral, PublicKeyToken=null
  m_FontData:
    m_Font: {fileID: 12800000, guid: 5c425d43bb0df45ca8eb162d5154251e, type: 3}
    m_FontSize: 160
    m_FontStyle: 0
    m_BestFit: 0
    m_MinSize: 10
    m_MaxSize: 160
    m_Alignment: 0
    m_AlignByGeometry: 0
    m_RichText: 1
    m_HorizontalOverflow: 0
    m_VerticalOverflow: 0
    m_LineSpacing: 1
  m_Text: "64\u02DA"
--- !u!222 &1190093709
CanvasRenderer:
  m_ObjectHideFlags: 0
  m_PrefabParentObject: {fileID: 22237006, guid: 0109fad48584ba14d89e5501fcedd2c1,
    type: 2}
  m_PrefabInternal: {fileID: 1001053369}
  m_GameObject: {fileID: 1190093706}
--- !u!1 &1458133566
GameObject:
  m_ObjectHideFlags: 0
  m_PrefabParentObject: {fileID: 137006, guid: 0109fad48584ba14d89e5501fcedd2c1, type: 2}
  m_PrefabInternal: {fileID: 1001053369}
  serializedVersion: 5
  m_Component:
  - component: {fileID: 1458133567}
  - component: {fileID: 1458133569}
  - component: {fileID: 1458133568}
  m_Layer: 5
  m_Name: CircleStroke
  m_TagString: Untagged
  m_Icon: {fileID: 0}
  m_NavMeshLayer: 0
  m_StaticEditorFlags: 0
  m_IsActive: 1
--- !u!224 &1458133567
RectTransform:
  m_ObjectHideFlags: 0
  m_PrefabParentObject: {fileID: 22437006, guid: 0109fad48584ba14d89e5501fcedd2c1,
    type: 2}
  m_PrefabInternal: {fileID: 1001053369}
  m_GameObject: {fileID: 1458133566}
  m_LocalRotation: {x: 0, y: 0, z: 0, w: 1}
  m_LocalPosition: {x: 0, y: 0, z: 0}
  m_LocalScale: {x: 1, y: 1, z: 1}
  m_Children: []
  m_Father: {fileID: 455805716}
  m_RootOrder: 5
  m_LocalEulerAnglesHint: {x: 0, y: 0, z: 0}
  m_AnchorMin: {x: 0, y: 0}
  m_AnchorMax: {x: 0, y: 0}
  m_AnchoredPosition: {x: 318, y: 318}
  m_SizeDelta: {x: 636, y: 636}
  m_Pivot: {x: 0.5, y: 0.5}
--- !u!114 &1458133568
MonoBehaviour:
  m_ObjectHideFlags: 0
  m_PrefabParentObject: {fileID: 11437002, guid: 0109fad48584ba14d89e5501fcedd2c1,
    type: 2}
  m_PrefabInternal: {fileID: 1001053369}
  m_GameObject: {fileID: 1458133566}
  m_Enabled: 1
  m_EditorHideFlags: 0
  m_Script: {fileID: -765806418, guid: f5f67c52d1564df4a8936ccd202a3bd8, type: 3}
  m_Name: 
  m_EditorClassIdentifier: 
  m_Material: {fileID: 0}
  m_Color: {r: 0.99215686, g: 0.99215686, b: 0.99215686, a: 1}
  m_RaycastTarget: 1
  m_OnCullStateChanged:
    m_PersistentCalls:
      m_Calls: []
    m_TypeName: UnityEngine.UI.MaskableGraphic+CullStateChangedEvent, UnityEngine.UI,
      Version=1.0.0.0, Culture=neutral, PublicKeyToken=null
  m_Sprite: {fileID: 21300000, guid: 73ff9b0cba4d93a41b8b2f045a8d52c1, type: 3}
  m_Type: 0
  m_PreserveAspect: 0
  m_FillCenter: 1
  m_FillMethod: 4
  m_FillAmount: 1
  m_FillClockwise: 1
  m_FillOrigin: 0
--- !u!222 &1458133569
CanvasRenderer:
  m_ObjectHideFlags: 0
  m_PrefabParentObject: {fileID: 22237008, guid: 0109fad48584ba14d89e5501fcedd2c1,
    type: 2}
  m_PrefabInternal: {fileID: 1001053369}
  m_GameObject: {fileID: 1458133566}
--- !u!1 &1500371475
GameObject:
  m_ObjectHideFlags: 0
  m_PrefabParentObject: {fileID: 0}
  m_PrefabInternal: {fileID: 0}
  serializedVersion: 5
  m_Component:
  - component: {fileID: 1500371479}
  - component: {fileID: 1500371478}
  - component: {fileID: 1500371477}
  - component: {fileID: 1500371476}
  m_Layer: 0
  m_Name: EventSystem
  m_TagString: Untagged
  m_Icon: {fileID: 0}
  m_NavMeshLayer: 0
  m_StaticEditorFlags: 0
  m_IsActive: 1
--- !u!114 &1500371476
MonoBehaviour:
  m_ObjectHideFlags: 0
  m_PrefabParentObject: {fileID: 0}
  m_PrefabInternal: {fileID: 0}
  m_GameObject: {fileID: 1500371475}
  m_Enabled: 1
  m_EditorHideFlags: 0
  m_Script: {fileID: 1997211142, guid: f5f67c52d1564df4a8936ccd202a3bd8, type: 3}
  m_Name: 
  m_EditorClassIdentifier: 
  m_ForceModuleActive: 0
--- !u!114 &1500371477
MonoBehaviour:
  m_ObjectHideFlags: 0
  m_PrefabParentObject: {fileID: 0}
  m_PrefabInternal: {fileID: 0}
  m_GameObject: {fileID: 1500371475}
  m_Enabled: 1
  m_EditorHideFlags: 0
  m_Script: {fileID: 1077351063, guid: f5f67c52d1564df4a8936ccd202a3bd8, type: 3}
  m_Name: 
  m_EditorClassIdentifier: 
  m_HorizontalAxis: Horizontal
  m_VerticalAxis: Vertical
  m_SubmitButton: Submit
  m_CancelButton: Cancel
  m_InputActionsPerSecond: 10
  m_RepeatDelay: 0.5
  m_ForceModuleActive: 0
--- !u!114 &1500371478
MonoBehaviour:
  m_ObjectHideFlags: 0
  m_PrefabParentObject: {fileID: 0}
  m_PrefabInternal: {fileID: 0}
  m_GameObject: {fileID: 1500371475}
  m_Enabled: 1
  m_EditorHideFlags: 0
  m_Script: {fileID: -619905303, guid: f5f67c52d1564df4a8936ccd202a3bd8, type: 3}
  m_Name: 
  m_EditorClassIdentifier: 
  m_FirstSelected: {fileID: 0}
  m_sendNavigationEvents: 1
  m_DragThreshold: 5
--- !u!4 &1500371479
Transform:
  m_ObjectHideFlags: 0
  m_PrefabParentObject: {fileID: 0}
  m_PrefabInternal: {fileID: 0}
  m_GameObject: {fileID: 1500371475}
  m_LocalRotation: {x: 0, y: 0, z: 0, w: 1}
  m_LocalPosition: {x: 0, y: 0, z: 0}
  m_LocalScale: {x: 1, y: 1, z: 1}
  m_Children: []
  m_Father: {fileID: 0}
  m_RootOrder: 1
  m_LocalEulerAnglesHint: {x: 0, y: 0, z: 0}
--- !u!1 &1511305452
GameObject:
  m_ObjectHideFlags: 0
  m_PrefabParentObject: {fileID: 0}
  m_PrefabInternal: {fileID: 0}
  serializedVersion: 5
  m_Component:
  - component: {fileID: 1511305453}
  m_Layer: 0
  m_Name: __SET_YOUR_GAMESCREEN_TO_636x636
  m_TagString: Untagged
  m_Icon: {fileID: 0}
  m_NavMeshLayer: 0
  m_StaticEditorFlags: 0
  m_IsActive: 1
--- !u!4 &1511305453
Transform:
  m_ObjectHideFlags: 0
  m_PrefabParentObject: {fileID: 0}
  m_PrefabInternal: {fileID: 0}
  m_GameObject: {fileID: 1511305452}
  m_LocalRotation: {x: 0, y: 0, z: 0, w: 1}
  m_LocalPosition: {x: 494.995, y: 627.74, z: 0}
  m_LocalScale: {x: 1, y: 1, z: 1}
  m_Children: []
  m_Father: {fileID: 0}
  m_RootOrder: 2
  m_LocalEulerAnglesHint: {x: 0, y: 0, z: 0}
--- !u!1 &1602207268
GameObject:
  m_ObjectHideFlags: 0
  m_PrefabParentObject: {fileID: 137022, guid: 0109fad48584ba14d89e5501fcedd2c1, type: 2}
  m_PrefabInternal: {fileID: 1001053369}
  serializedVersion: 5
  m_Component:
  - component: {fileID: 1602207269}
  - component: {fileID: 1602207271}
  - component: {fileID: 1602207270}
  m_Layer: 5
  m_Name: Icon
  m_TagString: Untagged
  m_Icon: {fileID: 0}
  m_NavMeshLayer: 0
  m_StaticEditorFlags: 0
  m_IsActive: 1
--- !u!224 &1602207269
RectTransform:
  m_ObjectHideFlags: 0
  m_PrefabParentObject: {fileID: 22437022, guid: 0109fad48584ba14d89e5501fcedd2c1,
    type: 2}
  m_PrefabInternal: {fileID: 1001053369}
  m_GameObject: {fileID: 1602207268}
  m_LocalRotation: {x: 0, y: 0, z: 0, w: 1}
  m_LocalPosition: {x: 0, y: 0, z: 0}
  m_LocalScale: {x: 1, y: 1, z: 1}
  m_Children:
  - {fileID: 2118880470}
  m_Father: {fileID: 455805716}
  m_RootOrder: 1
  m_LocalEulerAnglesHint: {x: 0, y: 0, z: 0}
  m_AnchorMin: {x: 0, y: 0}
  m_AnchorMax: {x: 0, y: 0}
  m_AnchoredPosition: {x: 164, y: 133}
  m_SizeDelta: {x: 35, y: 35}
  m_Pivot: {x: 0.5, y: 0.5}
--- !u!114 &1602207270
MonoBehaviour:
  m_ObjectHideFlags: 0
  m_PrefabParentObject: {fileID: 11437020, guid: 0109fad48584ba14d89e5501fcedd2c1,
    type: 2}
  m_PrefabInternal: {fileID: 1001053369}
  m_GameObject: {fileID: 1602207268}
  m_Enabled: 1
  m_EditorHideFlags: 0
  m_Script: {fileID: -765806418, guid: f5f67c52d1564df4a8936ccd202a3bd8, type: 3}
  m_Name: 
  m_EditorClassIdentifier: 
  m_Material: {fileID: 0}
  m_Color: {r: 1, g: 1, b: 1, a: 0.3254902}
  m_RaycastTarget: 1
  m_OnCullStateChanged:
    m_PersistentCalls:
      m_Calls: []
    m_TypeName: UnityEngine.UI.MaskableGraphic+CullStateChangedEvent, UnityEngine.UI,
      Version=1.0.0.0, Culture=neutral, PublicKeyToken=null
  m_Sprite: {fileID: 21300000, guid: 92aa8a4b81c0b456cb48fbce91066d77, type: 3}
  m_Type: 0
  m_PreserveAspect: 0
  m_FillCenter: 1
  m_FillMethod: 4
  m_FillAmount: 1
  m_FillClockwise: 1
  m_FillOrigin: 0
--- !u!222 &1602207271
CanvasRenderer:
  m_ObjectHideFlags: 0
  m_PrefabParentObject: {fileID: 22237022, guid: 0109fad48584ba14d89e5501fcedd2c1,
    type: 2}
  m_PrefabInternal: {fileID: 1001053369}
  m_GameObject: {fileID: 1602207268}
--- !u!1 &1797423835
GameObject:
  m_ObjectHideFlags: 0
  m_PrefabParentObject: {fileID: 137000, guid: 0109fad48584ba14d89e5501fcedd2c1, type: 2}
  m_PrefabInternal: {fileID: 1001053369}
  serializedVersion: 5
  m_Component:
  - component: {fileID: 1797423836}
  - component: {fileID: 1797423838}
  - component: {fileID: 1797423837}
  m_Layer: 5
  m_Name: Icon
  m_TagString: Untagged
  m_Icon: {fileID: 0}
  m_NavMeshLayer: 0
  m_StaticEditorFlags: 0
  m_IsActive: 1
--- !u!224 &1797423836
RectTransform:
  m_ObjectHideFlags: 0
  m_PrefabParentObject: {fileID: 22437000, guid: 0109fad48584ba14d89e5501fcedd2c1,
    type: 2}
  m_PrefabInternal: {fileID: 1001053369}
  m_GameObject: {fileID: 1797423835}
  m_LocalRotation: {x: 0, y: 0, z: 0, w: 1}
  m_LocalPosition: {x: 0, y: 0, z: 0}
  m_LocalScale: {x: 1, y: 1, z: 1}
  m_Children:
  - {fileID: 812986271}
  m_Father: {fileID: 455805716}
  m_RootOrder: 2
  m_LocalEulerAnglesHint: {x: 0, y: 0, z: 0}
  m_AnchorMin: {x: 0, y: 0}
  m_AnchorMax: {x: 0, y: 0}
  m_AnchoredPosition: {x: 309, y: 133}
  m_SizeDelta: {x: 22.2, y: 38.372}
  m_Pivot: {x: 0.5, y: 0.5}
--- !u!114 &1797423837
MonoBehaviour:
  m_ObjectHideFlags: 0
  m_PrefabParentObject: {fileID: 11436996, guid: 0109fad48584ba14d89e5501fcedd2c1,
    type: 2}
  m_PrefabInternal: {fileID: 1001053369}
  m_GameObject: {fileID: 1797423835}
  m_Enabled: 1
  m_EditorHideFlags: 0
  m_Script: {fileID: -765806418, guid: f5f67c52d1564df4a8936ccd202a3bd8, type: 3}
  m_Name: 
  m_EditorClassIdentifier: 
  m_Material: {fileID: 0}
  m_Color: {r: 1, g: 1, b: 1, a: 0.3254902}
  m_RaycastTarget: 1
  m_OnCullStateChanged:
    m_PersistentCalls:
      m_Calls: []
    m_TypeName: UnityEngine.UI.MaskableGraphic+CullStateChangedEvent, UnityEngine.UI,
      Version=1.0.0.0, Culture=neutral, PublicKeyToken=null
  m_Sprite: {fileID: 21300000, guid: 1899dc4f204ed47db955aa879df4c93f, type: 3}
  m_Type: 0
  m_PreserveAspect: 0
  m_FillCenter: 1
  m_FillMethod: 4
  m_FillAmount: 1
  m_FillClockwise: 1
  m_FillOrigin: 0
--- !u!222 &1797423838
CanvasRenderer:
  m_ObjectHideFlags: 0
  m_PrefabParentObject: {fileID: 22237002, guid: 0109fad48584ba14d89e5501fcedd2c1,
    type: 2}
  m_PrefabInternal: {fileID: 1001053369}
  m_GameObject: {fileID: 1797423835}
--- !u!1 &2118880469
GameObject:
  m_ObjectHideFlags: 0
  m_PrefabParentObject: {fileID: 137002, guid: 0109fad48584ba14d89e5501fcedd2c1, type: 2}
  m_PrefabInternal: {fileID: 1001053369}
  serializedVersion: 5
  m_Component:
  - component: {fileID: 2118880470}
  - component: {fileID: 2118880472}
  - component: {fileID: 2118880471}
  m_Layer: 5
  m_Name: Text
  m_TagString: Untagged
  m_Icon: {fileID: 0}
  m_NavMeshLayer: 0
  m_StaticEditorFlags: 0
  m_IsActive: 1
--- !u!224 &2118880470
RectTransform:
  m_ObjectHideFlags: 0
  m_PrefabParentObject: {fileID: 22437002, guid: 0109fad48584ba14d89e5501fcedd2c1,
    type: 2}
  m_PrefabInternal: {fileID: 1001053369}
  m_GameObject: {fileID: 2118880469}
  m_LocalRotation: {x: 0, y: 0, z: 0, w: 1}
  m_LocalPosition: {x: 0, y: 0, z: 0}
  m_LocalScale: {x: 1, y: 1, z: 1}
  m_Children: []
  m_Father: {fileID: 1602207269}
  m_RootOrder: 0
  m_LocalEulerAnglesHint: {x: 0, y: 0, z: 0}
  m_AnchorMin: {x: 0.5, y: 0.5}
  m_AnchorMax: {x: 0.5, y: 0.5}
  m_AnchoredPosition: {x: 64.7, y: 0.00010109}
  m_SizeDelta: {x: 76.3, y: 30}
  m_Pivot: {x: 0.5, y: 0.5}
--- !u!114 &2118880471
MonoBehaviour:
  m_ObjectHideFlags: 0
  m_PrefabParentObject: {fileID: 11436998, guid: 0109fad48584ba14d89e5501fcedd2c1,
    type: 2}
  m_PrefabInternal: {fileID: 1001053369}
  m_GameObject: {fileID: 2118880469}
  m_Enabled: 1
  m_EditorHideFlags: 0
  m_Script: {fileID: 708705254, guid: f5f67c52d1564df4a8936ccd202a3bd8, type: 3}
  m_Name: 
  m_EditorClassIdentifier: 
  m_Material: {fileID: 0}
  m_Color: {r: 0.99215686, g: 0.99215686, b: 0.99215686, a: 0.42745098}
  m_RaycastTarget: 1
  m_OnCullStateChanged:
    m_PersistentCalls:
      m_Calls: []
    m_TypeName: UnityEngine.UI.MaskableGraphic+CullStateChangedEvent, UnityEngine.UI,
      Version=1.0.0.0, Culture=neutral, PublicKeyToken=null
  m_FontData:
    m_Font: {fileID: 12800000, guid: 218956a5c2a6e42d6a60afccf80b002b, type: 3}
    m_FontSize: 20
    m_FontStyle: 0
    m_BestFit: 0
    m_MinSize: 10
    m_MaxSize: 40
    m_Alignment: 3
    m_AlignByGeometry: 0
    m_RichText: 1
    m_HorizontalOverflow: 0
    m_VerticalOverflow: 0
    m_LineSpacing: 1
  m_Text: 43mm
--- !u!222 &2118880472
CanvasRenderer:
  m_ObjectHideFlags: 0
  m_PrefabParentObject: {fileID: 22237004, guid: 0109fad48584ba14d89e5501fcedd2c1,
    type: 2}
  m_PrefabInternal: {fileID: 1001053369}
  m_GameObject: {fileID: 2118880469}
